[
  {
    "name": "price",
    "type":"FLOAT",
    "mode":"REQUIRED"
  },
  {
    "name": "price_unit",
    "type": "STRING",
    "mode": "REQUIRED"
  },
  {
    "name": "area",
    "type": "FLOAT",
    "mode": "NULLABLE"
  },
  {
    "name": "transaction_type",
    "type": "STRING",
    "mode": "NULLABLE"
  },
  {
    "name": "property_type",
    "type": "STRING",
    "mode": "NULLABLE"
  },
  {
    "name": "addr_province",
    "type": "STRING",
    "mode": "NULLABLE"
  },
  {
    "name": "addr_city",
    "type": "STRING",
    "mode": "NULLABLE"
  },
  {
    "name": "addr_district",
    "type": "STRING",
    "mode": "NULLABLE"
  },
  {
    "name": "addr_ward",
    "type": "STRING",
    "mode": "NULLABLE"
  },
  {
    "name": "addr_street",
    "type": "STRING",
    "mode": "NULLABLE"
  },
  {
    "name": "num_bedrooms",
    "type": "INTEGER",
    "mode": "NULLABLE"
  },
  {
    "name": "num_bathrooms",
    "type": "INTEGER",
    "mode": "NULLABLE"
  },
  {
    "name": "project",
    "type": "STRING",
    "mode": "NULLABLE"
  },
  {
    "name": "project_size",
    "type": "STRING",
    "mode": "NULLABLE"
  },
  {
    "name": "created_date",
    "type": "DATE",
    "mode": "NULLABLE"
  },
  {
    "name": "expired_date",
    "type": "DATE",
    "mode": "NULLABLE"
  },
  {
    "name": "num_floors",
    "type": "INTEGER",
    "mode": "NULLABLE"
  },
  {
    "name": "floorth",
    "type": "INTEGER",
    "mode": "NULLABLE"
  },
  {
    "name": "direction",
    "type": "STRING",
    "mode": "NULLABLE"
  },
  {
    "name": "legal",
    "type": "STRING",
    "mode": "NULLABLE"
  },
  {
    "name": "front",
    "type": "FLOAT",
    "mode": "NULLABLE"
  },
  {
    "name": "alley",
    "type": "FLOAT",
    "mode": "NULLABLE"
  },
  {
    "name": "url",
    "type": "STRING",
    "mode": "NULLABLE"
  },
  {
    "name": "post_author",
    "type": "STRING",
    "mode": "NULLABLE"
  },
  {
    "name": "phone_number",
    "type": "STRING",
    "mode": "NULLABLE"
  },
  {
    "name": "surrounding",
    "type": "STRING",
    "mode": "REPEATED"
  },
  {
    "name": "surrounding_characteristics",
    "type": "STRING",
    "mode": "REPEATED"
  },
  {
    "name": "position",
    "type": "STRING",
    "mode": "NULLABLE"
  },
  {
    "name": "internal_facility",
    "type": "STRING",
    "mode": "REPEATED"
  }
]